<?php return array (
  0 => 
  array (
    0 => 'Классический (общий) массаж',
    1 => 'klassicheskij-massazh',
  ),
  1 => 
  array (
    0 => 'Антицеллюлитный массаж в Киеве',
    1 => 'anticellyulitnyj-massazh',
  ),
  2 => 
  array (
    0 => 'Лимфодренажный массаж',
    1 => 'limfodrenazhnyj-massazh',
  ),
  3 => 
  array (
    0 => 'Лечебный массаж спины',
    1 => 'massazh-spiny',
  ),
  4 => 
  array (
    0 => 'Массаж шеи и воротниковой зоны',
    1 => 'vorotnikovaya-zona',
  ),
  5 => 
  array (
    0 => 'Косметический массаж лица',
    1 => 'massag-litsa',
  ),
  6 => 
  array (
    0 => 'Массаж стоп',
    1 => 'massazh-stop',
  ),
  7 => 
  array (
    0 => 'Спортивный массаж',
    1 => 'sportivnyj-massazh',
  ),
  8 => 
  array (
    0 => 'Лечебный массаж',
    1 => 'lechebnyj-massazh',
  ),
  9 => 
  array (
    0 => 'Релакс (расслабляющий) массаж',
    1 => 'relaks-massazh',
  ),
  10 => 
  array (
    0 => 'Массаж головы',
    1 => 'massazh-golovy',
  ),
  11 => 
  array (
    0 => 'Детский массаж',
    1 => 'detskij-massazh',
  ),
  12 => 
  array (
    0 => 'Медовый массаж',
    1 => 'medovyy-massazh',
  ),
  13 => 
  array (
    0 => 'Виски пеленания STYX',
    1 => 'viski-pelenaniya-styx',
  ),
  14 => 
  array (
    0 => 'ОбертыванияCello Gel',
    1 => 'cello-gel',
  ),
  15 => 
  array (
    0 => 'Массаж Гуаша в Киеве',
    1 => 'guasha',
  ),
  16 => 
  array (
    0 => 'Массаж бамбуковыми вениками',
    1 => 'bambukovye-veniki',
  ),
  17 => 
  array (
    0 => 'Водорослевые обертывания',
    1 => 'vodoroslevye-obertyvaniya',
  ),
  18 => 
  array (
    0 => 'Шоколадное обертывание',
    1 => 'shokoladnoe-obertyvanie',
  ),
  19 => 
  array (
    0 => 'Офисный массаж в Киеве',
    1 => 'office-massage',
  ),
  20 => 
  array (
    0 => 'Парный массаж для двоих в Киеве',
    1 => 'parnyj-massazh',
  ),
  21 => 
  array (
    0 => 'Кинезиологическое тейпирование',
    1 => 'tejpirovanie',
  ),
)?>
