Главная,https://massage-kiev.net.ua/,,
,Услуги,https://massage-kiev.net.ua/massazh,
,,Классический массаж,https://massage-kiev.net.ua/klassicheskij-massazh
,,Антицеллюлитный массаж,https://massage-kiev.net.ua/anticellyulitnyj-massazh
,,Лимфодренажный массаж,https://massage-kiev.net.ua/limfodrenazhnyj-massazh
,,Массаж спины,https://massage-kiev.net.ua/massazh-spiny
,,Массаж воротниковой зоны,https://massage-kiev.net.ua/vorotnikovaya-zona
,,Массаж стоп,https://massage-kiev.net.ua/massazh-stop
,,Спортивный массаж,https://massage-kiev.net.ua/sportivnyj-massazh
,,Лечебный массаж,https://massage-kiev.net.ua/lechebnyj-massazh
,,Релакс массаж,https://massage-kiev.net.ua/relaks-massazh
,,Массаж головы,https://massage-kiev.net.ua/massazh-golovy
,,Массаж лица,https://massage-kiev.net.ua/massag-litsa
,,Детский массаж,https://massage-kiev.net.ua/detskij-massazh
,,Медовый массаж,https://massage-kiev.net.ua/medovyy-massazh
,,Массаж Гуаша,https://massage-kiev.net.ua/guasha
,,"Парный массаж, массаж для двоих",https://massage-kiev.net.ua/parnyj-massazh
,,Массаж бамбуковыми вениками,https://massage-kiev.net.ua/bambukovye-veniki
,,Виски пеленания STYX,https://massage-kiev.net.ua/viski-pelenaniya-styx
,,Горячие обертывания Cello Gel (Австрия),https://massage-kiev.net.ua/cello-gel
,,Шоколадное обертывание,https://massage-kiev.net.ua/shokoladnoe-obertyvanie
,,Водорослевые обертывания,https://massage-kiev.net.ua/vodoroslevye-obertyvaniya
,,Кинезиологическое тейпирование,https://massage-kiev.net.ua/tejpirovanie
,,Юмейхо терапия,https://massage-kiev.net.ua/yumeiho
,,Массаж бамбуковыми палками (бразильская попа),https://massage-kiev.net.ua/bambukovymi-palkami
,,Стоун массаж (массаж горячими камнями),https://massage-kiev.net.ua/stone-massage
,"Массаж в центре Киева, м. Крещатик",https://massage-kiev.net.ua/massage-centr,
,Массаж на Осокорках и Позняках,https://massage-kiev.net.ua/massage-poznyaki,
,Массаж Днепровский район,https://massage-kiev.net.ua/massage-levoberezhnaya,
,Массаж в Комфорт Тауне,https://massage-kiev.net.ua/massazh-v-komfort-taune,
,Массаж Троещина и Дарница,https://massage-kiev.net.ua/massage-troeschina,
,"Массаж Оболонь, Минская",https://massage-kiev.net.ua/massage-obolon,
,Массаж в Соломенском районе,https://massage-kiev.net.ua/massage-solomenka,
,Массаж в Святошинском районе,https://massage-kiev.net.ua/massage-svyatoshin,
,Массаж в Шевченковском районе,https://massage-kiev.net.ua/massage-nivki,
,Массаж в Подольском районе,https://massage-kiev.net.ua/massage-podol,
,Массаж в Голосеевском районе,https://massage-kiev.net.ua/massage-goloseevo,
,Массаж в Ирпене,https://massage-kiev.net.ua/massage-irpen,
,Массаж в Броварах,https://massage-kiev.net.ua/massage-brovary,
,Массаж на дому,https://massage-kiev.net.ua/massage-na-domu,
,Офисный массаж,https://massage-kiev.net.ua/office-massage,
,ПОДАРОЧНЫЕ СЕРТИФИКАТЫ,https://massage-kiev.net.ua/podarochnye,
,Наши массажисты,https://massage-kiev.net.ua/masseurs,
,Цены,https://massage-kiev.net.ua/ceny,